Jackson Strand Website - Weather Data MT
…
── Column specification ────────────────────────────────────────────────────────
cols(
  station = col_character(),
  lat = col_double(),
  lon = col_double(),
  variable = col_character(),
  start = col_double(),
  end = col_double()
)

inventory

# A tibble: 747,392 × 6
   station       lat   lon variable start   end
   <chr>       <dbl> <dbl> <chr>    <dbl> <dbl>
 1 ACW00011604  17.1 -61.8 TMAX      1949  1949
 2 ACW00011604  17.1 -61.8 TMIN      1949  1949
 3 ACW00011604  17.1 -61.8 PRCP      1949  1949
 4 ACW00011604  17.1 -61.8 SNOW      1949  1949
 5 ACW00011604  17.1 -61.8 SNWD      1949  1949
 6 ACW00011604  17.1 -61.8 PGTM      1949  1949
 7 ACW00011604  17.1 -61.8 WDFG      1949  1949
 8 ACW00011604  17.1 -61.8 WSFG      1949  1949
 9 ACW00011604  17.1 -61.8 WT03      1949  1949
10 ACW00011604  17.1 -61.8 WT08      1949  1949
# ℹ 747,382 more rows
…
